﻿# Tiled2Unity generated file. Do not modify by hand.
# Wavefront file for 'LunarStation_mesh_0002.obj'

# Vertices (Count = 1956)
v -17 -1 0
v -18 -1 0
v -18 0 0
v -17 0 0
v -18 -1 0
v -19 -1 0
v -19 0 0
v -18 0 0
v -28 -1 0
v -29 -1 0
v -29 0 0
v -28 0 0
v -29 -1 0
v -30 -1 0
v -30 0 0
v -29 0 0
v -39 -1 0
v -40 -1 0
v -40 0 0
v -39 0 0
v -40 -1 0
v -41 -1 0
v -41 0 0
v -40 0 0
v -17 -2 0
v -18 -2 0
v -18 -1 0
v -17 -1 0
v -18 -2 0
v -19 -2 0
v -19 -1 0
v -18 -1 0
v -28 -2 0
v -29 -2 0
v -29 -1 0
v -28 -1 0
v -29 -2 0
v -30 -2 0
v -30 -1 0
v -29 -1 0
v -39 -2 0
v -40 -2 0
v -40 -1 0
v -39 -1 0
v -40 -2 0
v -41 -2 0
v -41 -1 0
v -40 -1 0
v -17 -3 0
v -18 -3 0
v -18 -2 0
v -17 -2 0
v -18 -3 0
v -19 -3 0
v -19 -2 0
v -18 -2 0
v -28 -3 0
v -29 -3 0
v -29 -2 0
v -28 -2 0
v -29 -3 0
v -30 -3 0
v -30 -2 0
v -29 -2 0
v -39 -3 0
v -40 -3 0
v -40 -2 0
v -39 -2 0
v -40 -3 0
v -41 -3 0
v -41 -2 0
v -40 -2 0
v 0 -4 0
v -1 -4 0
v -1 -3 0
v 0 -3 0
v -1 -4 0
v -2 -4 0
v -2 -3 0
v -1 -3 0
v -2 -4 0
v -3 -4 0
v -3 -3 0
v -2 -3 0
v -3 -4 0
v -4 -4 0
v -4 -3 0
v -3 -3 0
v -4 -4 0
v -5 -4 0
v -5 -3 0
v -4 -3 0
v -5 -4 0
v -6 -4 0
v -6 -3 0
v -5 -3 0
v -17 -4 0
v -18 -4 0
v -18 -3 0
v -17 -3 0
v -18 -4 0
v -19 -4 0
v -19 -3 0
v -18 -3 0
v -28 -4 0
v -29 -4 0
v -29 -3 0
v -28 -3 0
v -29 -4 0
v -30 -4 0
v -30 -3 0
v -29 -3 0
v -39 -4 0
v -40 -4 0
v -40 -3 0
v -39 -3 0
v -40 -4 0
v -41 -4 0
v -41 -3 0
v -40 -3 0
v -52 -4 0
v -53 -4 0
v -53 -3 0
v -52 -3 0
v -53 -4 0
v -54 -4 0
v -54 -3 0
v -53 -3 0
v -54 -4 0
v -55 -4 0
v -55 -3 0
v -54 -3 0
v -55 -4 0
v -56 -4 0
v -56 -3 0
v -55 -3 0
v -56 -4 0
v -57 -4 0
v -57 -3 0
v -56 -3 0
v -57 -4 0
v -58 -4 0
v -58 -3 0
v -57 -3 0
v 0 -5 0
v -1 -5 0
v -1 -4 0
v 0 -4 0
v -1 -5 0
v -2 -5 0
v -2 -4 0
v -1 -4 0
v -2 -5 0
v -3 -5 0
v -3 -4 0
v -2 -4 0
v -3 -5 0
v -4 -5 0
v -4 -4 0
v -3 -4 0
v -4 -5 0
v -5 -5 0
v -5 -4 0
v -4 -4 0
v -5 -5 0
v -6 -5 0
v -6 -4 0
v -5 -4 0
v -14 -5 0
v -15 -5 0
v -15 -4 0
v -14 -4 0
v -15 -5 0
v -16 -5 0
v -16 -4 0
v -15 -4 0
v -16 -5 0
v -17 -5 0
v -17 -4 0
v -16 -4 0
v -17 -5 0
v -18 -5 0
v -18 -4 0
v -17 -4 0
v -18 -5 0
v -19 -5 0
v -19 -4 0
v -18 -4 0
v -19 -5 0
v -20 -5 0
v -20 -4 0
v -19 -4 0
v -20 -5 0
v -21 -5 0
v -21 -4 0
v -20 -4 0
v -21 -5 0
v -22 -5 0
v -22 -4 0
v -21 -4 0
v -28 -5 0
v -29 -5 0
v -29 -4 0
v -28 -4 0
v -29 -5 0
v -30 -5 0
v -30 -4 0
v -29 -4 0
v -36 -5 0
v -37 -5 0
v -37 -4 0
v -36 -4 0
v -37 -5 0
v -38 -5 0
v -38 -4 0
v -37 -4 0
v -38 -5 0
v -39 -5 0
v -39 -4 0
v -38 -4 0
v -39 -5 0
v -40 -5 0
v -40 -4 0
v -39 -4 0
v -40 -5 0
v -41 -5 0
v -41 -4 0
v -40 -4 0
v -41 -5 0
v -42 -5 0
v -42 -4 0
v -41 -4 0
v -42 -5 0
v -43 -5 0
v -43 -4 0
v -42 -4 0
v -43 -5 0
v -44 -5 0
v -44 -4 0
v -43 -4 0
v -52 -5 0
v -53 -5 0
v -53 -4 0
v -52 -4 0
v -53 -5 0
v -54 -5 0
v -54 -4 0
v -53 -4 0
v -54 -5 0
v -55 -5 0
v -55 -4 0
v -54 -4 0
v -55 -5 0
v -56 -5 0
v -56 -4 0
v -55 -4 0
v -56 -5 0
v -57 -5 0
v -57 -4 0
v -56 -4 0
v -57 -5 0
v -58 -5 0
v -58 -4 0
v -57 -4 0
v 0 -6 0
v -1 -6 0
v -1 -5 0
v 0 -5 0
v -1 -6 0
v -2 -6 0
v -2 -5 0
v -1 -5 0
v -2 -6 0
v -3 -6 0
v -3 -5 0
v -2 -5 0
v -3 -6 0
v -4 -6 0
v -4 -5 0
v -3 -5 0
v -4 -6 0
v -5 -6 0
v -5 -5 0
v -4 -5 0
v -5 -6 0
v -6 -6 0
v -6 -5 0
v -5 -5 0
v -14 -6 0
v -15 -6 0
v -15 -5 0
v -14 -5 0
v -15 -6 0
v -16 -6 0
v -16 -5 0
v -15 -5 0
v -16 -6 0
v -17 -6 0
v -17 -5 0
v -16 -5 0
v -17 -6 0
v -18 -6 0
v -18 -5 0
v -17 -5 0
v -18 -6 0
v -19 -6 0
v -19 -5 0
v -18 -5 0
v -19 -6 0
v -20 -6 0
v -20 -5 0
v -19 -5 0
v -20 -6 0
v -21 -6 0
v -21 -5 0
v -20 -5 0
v -21 -6 0
v -22 -6 0
v -22 -5 0
v -21 -5 0
v -28 -6 0
v -29 -6 0
v -29 -5 0
v -28 -5 0
v -29 -6 0
v -30 -6 0
v -30 -5 0
v -29 -5 0
v -36 -6 0
v -37 -6 0
v -37 -5 0
v -36 -5 0
v -37 -6 0
v -38 -6 0
v -38 -5 0
v -37 -5 0
v -38 -6 0
v -39 -6 0
v -39 -5 0
v -38 -5 0
v -39 -6 0
v -40 -6 0
v -40 -5 0
v -39 -5 0
v -40 -6 0
v -41 -6 0
v -41 -5 0
v -40 -5 0
v -41 -6 0
v -42 -6 0
v -42 -5 0
v -41 -5 0
v -42 -6 0
v -43 -6 0
v -43 -5 0
v -42 -5 0
v -43 -6 0
v -44 -6 0
v -44 -5 0
v -43 -5 0
v -52 -6 0
v -53 -6 0
v -53 -5 0
v -52 -5 0
v -53 -6 0
v -54 -6 0
v -54 -5 0
v -53 -5 0
v -54 -6 0
v -55 -6 0
v -55 -5 0
v -54 -5 0
v -55 -6 0
v -56 -6 0
v -56 -5 0
v -55 -5 0
v -56 -6 0
v -57 -6 0
v -57 -5 0
v -56 -5 0
v -57 -6 0
v -58 -6 0
v -58 -5 0
v -57 -5 0
v 0 -7 0
v -1 -7 0
v -1 -6 0
v 0 -6 0
v -1 -7 0
v -2 -7 0
v -2 -6 0
v -1 -6 0
v -2 -7 0
v -3 -7 0
v -3 -6 0
v -2 -6 0
v -3 -7 0
v -4 -7 0
v -4 -6 0
v -3 -6 0
v -4 -7 0
v -5 -7 0
v -5 -6 0
v -4 -6 0
v -5 -7 0
v -6 -7 0
v -6 -6 0
v -5 -6 0
v -28 -7 0
v -29 -7 0
v -29 -6 0
v -28 -6 0
v -29 -7 0
v -30 -7 0
v -30 -6 0
v -29 -6 0
v -52 -7 0
v -53 -7 0
v -53 -6 0
v -52 -6 0
v -53 -7 0
v -54 -7 0
v -54 -6 0
v -53 -6 0
v -54 -7 0
v -55 -7 0
v -55 -6 0
v -54 -6 0
v -55 -7 0
v -56 -7 0
v -56 -6 0
v -55 -6 0
v -56 -7 0
v -57 -7 0
v -57 -6 0
v -56 -6 0
v -57 -7 0
v -58 -7 0
v -58 -6 0
v -57 -6 0
v -9 -8 0
v -10 -8 0
v -10 -7 0
v -9 -7 0
v -10 -8 0
v -11 -8 0
v -11 -7 0
v -10 -7 0
v -26 -8 0
v -27 -8 0
v -27 -7 0
v -26 -7 0
v -27 -8 0
v -28 -8 0
v -28 -7 0
v -27 -7 0
v -28 -8 0
v -29 -8 0
v -29 -7 0
v -28 -7 0
v -29 -8 0
v -30 -8 0
v -30 -7 0
v -29 -7 0
v -30 -8 0
v -31 -8 0
v -31 -7 0
v -30 -7 0
v -31 -8 0
v -32 -8 0
v -32 -7 0
v -31 -7 0
v -47 -8 0
v -48 -8 0
v -48 -7 0
v -47 -7 0
v -48 -8 0
v -49 -8 0
v -49 -7 0
v -48 -7 0
v -9 -9 0
v -10 -9 0
v -10 -8 0
v -9 -8 0
v -10 -9 0
v -11 -9 0
v -11 -8 0
v -10 -8 0
v -26 -9 0
v -27 -9 0
v -27 -8 0
v -26 -8 0
v -27 -9 0
v -28 -9 0
v -28 -8 0
v -27 -8 0
v -28 -9 0
v -29 -9 0
v -29 -8 0
v -28 -8 0
v -29 -9 0
v -30 -9 0
v -30 -8 0
v -29 -8 0
v -30 -9 0
v -31 -9 0
v -31 -8 0
v -30 -8 0
v -31 -9 0
v -32 -9 0
v -32 -8 0
v -31 -8 0
v -47 -9 0
v -48 -9 0
v -48 -8 0
v -47 -8 0
v -48 -9 0
v -49 -9 0
v -49 -8 0
v -48 -8 0
v -9 -10 0
v -10 -10 0
v -10 -9 0
v -9 -9 0
v -10 -10 0
v -11 -10 0
v -11 -9 0
v -10 -9 0
v -47 -10 0
v -48 -10 0
v -48 -9 0
v -47 -9 0
v -48 -10 0
v -49 -10 0
v -49 -9 0
v -48 -9 0
v -9 -11 0
v -10 -11 0
v -10 -10 0
v -9 -10 0
v -10 -11 0
v -11 -11 0
v -11 -10 0
v -10 -10 0
v -47 -11 0
v -48 -11 0
v -48 -10 0
v -47 -10 0
v -48 -11 0
v -49 -11 0
v -49 -10 0
v -48 -10 0
v -4 -12 0
v -5 -12 0
v -5 -11 0
v -4 -11 0
v -5 -12 0
v -6 -12 0
v -6 -11 0
v -5 -11 0
v -6 -12 0
v -7 -12 0
v -7 -11 0
v -6 -11 0
v -7 -12 0
v -8 -12 0
v -8 -11 0
v -7 -11 0
v -8 -12 0
v -9 -12 0
v -9 -11 0
v -8 -11 0
v -9 -12 0
v -10 -12 0
v -10 -11 0
v -9 -11 0
v -10 -12 0
v -11 -12 0
v -11 -11 0
v -10 -11 0
v -11 -12 0
v -12 -12 0
v -12 -11 0
v -11 -11 0
v -12 -12 0
v -13 -12 0
v -13 -11 0
v -12 -11 0
v -13 -12 0
v -14 -12 0
v -14 -11 0
v -13 -11 0
v -14 -12 0
v -15 -12 0
v -15 -11 0
v -14 -11 0
v -43 -12 0
v -44 -12 0
v -44 -11 0
v -43 -11 0
v -44 -12 0
v -45 -12 0
v -45 -11 0
v -44 -11 0
v -45 -12 0
v -46 -12 0
v -46 -11 0
v -45 -11 0
v -46 -12 0
v -47 -12 0
v -47 -11 0
v -46 -11 0
v -47 -12 0
v -48 -12 0
v -48 -11 0
v -47 -11 0
v -48 -12 0
v -49 -12 0
v -49 -11 0
v -48 -11 0
v -49 -12 0
v -50 -12 0
v -50 -11 0
v -49 -11 0
v -50 -12 0
v -51 -12 0
v -51 -11 0
v -50 -11 0
v -51 -12 0
v -52 -12 0
v -52 -11 0
v -51 -11 0
v -52 -12 0
v -53 -12 0
v -53 -11 0
v -52 -11 0
v -4 -13 0
v -5 -13 0
v -5 -12 0
v -4 -12 0
v -5 -13 0
v -6 -13 0
v -6 -12 0
v -5 -12 0
v -6 -13 0
v -7 -13 0
v -7 -12 0
v -6 -12 0
v -7 -13 0
v -8 -13 0
v -8 -12 0
v -7 -12 0
v -8 -13 0
v -9 -13 0
v -9 -12 0
v -8 -12 0
v -9 -13 0
v -10 -13 0
v -10 -12 0
v -9 -12 0
v -10 -13 0
v -11 -13 0
v -11 -12 0
v -10 -12 0
v -11 -13 0
v -12 -13 0
v -12 -12 0
v -11 -12 0
v -12 -13 0
v -13 -13 0
v -13 -12 0
v -12 -12 0
v -13 -13 0
v -14 -13 0
v -14 -12 0
v -13 -12 0
v -14 -13 0
v -15 -13 0
v -15 -12 0
v -14 -12 0
v -17 -13 0
v -18 -13 0
v -18 -12 0
v -17 -12 0
v -18 -13 0
v -19 -13 0
v -19 -12 0
v -18 -12 0
v -39 -13 0
v -40 -13 0
v -40 -12 0
v -39 -12 0
v -40 -13 0
v -41 -13 0
v -41 -12 0
v -40 -12 0
v -43 -13 0
v -44 -13 0
v -44 -12 0
v -43 -12 0
v -44 -13 0
v -45 -13 0
v -45 -12 0
v -44 -12 0
v -45 -13 0
v -46 -13 0
v -46 -12 0
v -45 -12 0
v -46 -13 0
v -47 -13 0
v -47 -12 0
v -46 -12 0
v -47 -13 0
v -48 -13 0
v -48 -12 0
v -47 -12 0
v -48 -13 0
v -49 -13 0
v -49 -12 0
v -48 -12 0
v -49 -13 0
v -50 -13 0
v -50 -12 0
v -49 -12 0
v -50 -13 0
v -51 -13 0
v -51 -12 0
v -50 -12 0
v -51 -13 0
v -52 -13 0
v -52 -12 0
v -51 -12 0
v -52 -13 0
v -53 -13 0
v -53 -12 0
v -52 -12 0
v 0 -14 0
v -1 -14 0
v -1 -13 0
v 0 -13 0
v -1 -14 0
v -2 -14 0
v -2 -13 0
v -1 -13 0
v -4 -14 0
v -5 -14 0
v -5 -13 0
v -4 -13 0
v -5 -14 0
v -6 -14 0
v -6 -13 0
v -5 -13 0
v -6 -14 0
v -7 -14 0
v -7 -13 0
v -6 -13 0
v -7 -14 0
v -8 -14 0
v -8 -13 0
v -7 -13 0
v -8 -14 0
v -9 -14 0
v -9 -13 0
v -8 -13 0
v -9 -14 0
v -10 -14 0
v -10 -13 0
v -9 -13 0
v -10 -14 0
v -11 -14 0
v -11 -13 0
v -10 -13 0
v -11 -14 0
v -12 -14 0
v -12 -13 0
v -11 -13 0
v -12 -14 0
v -13 -14 0
v -13 -13 0
v -12 -13 0
v -13 -14 0
v -14 -14 0
v -14 -13 0
v -13 -13 0
v -14 -14 0
v -15 -14 0
v -15 -13 0
v -14 -13 0
v -22 -14 0
v -23 -14 0
v -23 -13 0
v -22 -13 0
v -23 -14 0
v -24 -14 0
v -24 -13 0
v -23 -13 0
v -34 -14 0
v -35 -14 0
v -35 -13 0
v -34 -13 0
v -35 -14 0
v -36 -14 0
v -36 -13 0
v -35 -13 0
v -43 -14 0
v -44 -14 0
v -44 -13 0
v -43 -13 0
v -44 -14 0
v -45 -14 0
v -45 -13 0
v -44 -13 0
v -45 -14 0
v -46 -14 0
v -46 -13 0
v -45 -13 0
v -46 -14 0
v -47 -14 0
v -47 -13 0
v -46 -13 0
v -47 -14 0
v -48 -14 0
v -48 -13 0
v -47 -13 0
v -48 -14 0
v -49 -14 0
v -49 -13 0
v -48 -13 0
v -49 -14 0
v -50 -14 0
v -50 -13 0
v -49 -13 0
v -50 -14 0
v -51 -14 0
v -51 -13 0
v -50 -13 0
v -51 -14 0
v -52 -14 0
v -52 -13 0
v -51 -13 0
v -52 -14 0
v -53 -14 0
v -53 -13 0
v -52 -13 0
v -56 -14 0
v -57 -14 0
v -57 -13 0
v -56 -13 0
v -57 -14 0
v -58 -14 0
v -58 -13 0
v -57 -13 0
v -19 -17 0
v -20 -17 0
v -20 -16 0
v -19 -16 0
v -20 -17 0
v -21 -17 0
v -21 -16 0
v -20 -16 0
v -26 -17 0
v -27 -17 0
v -27 -16 0
v -26 -16 0
v -27 -17 0
v -28 -17 0
v -28 -16 0
v -27 -16 0
v -28 -17 0
v -29 -17 0
v -29 -16 0
v -28 -16 0
v -29 -17 0
v -30 -17 0
v -30 -16 0
v -29 -16 0
v -30 -17 0
v -31 -17 0
v -31 -16 0
v -30 -16 0
v -31 -17 0
v -32 -17 0
v -32 -16 0
v -31 -16 0
v -37 -17 0
v -38 -17 0
v -38 -16 0
v -37 -16 0
v -38 -17 0
v -39 -17 0
v -39 -16 0
v -38 -16 0
v 0 -18 0
v -1 -18 0
v -1 -17 0
v 0 -17 0
v -1 -18 0
v -2 -18 0
v -2 -17 0
v -1 -17 0
v -2 -18 0
v -3 -18 0
v -3 -17 0
v -2 -17 0
v -3 -18 0
v -4 -18 0
v -4 -17 0
v -3 -17 0
v -4 -18 0
v -5 -18 0
v -5 -17 0
v -4 -17 0
v -5 -18 0
v -6 -18 0
v -6 -17 0
v -5 -17 0
v -19 -18 0
v -20 -18 0
v -20 -17 0
v -19 -17 0
v -20 -18 0
v -21 -18 0
v -21 -17 0
v -20 -17 0
v -26 -18 0
v -27 -18 0
v -27 -17 0
v -26 -17 0
v -27 -18 0
v -28 -18 0
v -28 -17 0
v -27 -17 0
v -28 -18 0
v -29 -18 0
v -29 -17 0
v -28 -17 0
v -29 -18 0
v -30 -18 0
v -30 -17 0
v -29 -17 0
v -30 -18 0
v -31 -18 0
v -31 -17 0
v -30 -17 0
v -31 -18 0
v -32 -18 0
v -32 -17 0
v -31 -17 0
v -37 -18 0
v -38 -18 0
v -38 -17 0
v -37 -17 0
v -38 -18 0
v -39 -18 0
v -39 -17 0
v -38 -17 0
v -52 -18 0
v -53 -18 0
v -53 -17 0
v -52 -17 0
v -53 -18 0
v -54 -18 0
v -54 -17 0
v -53 -17 0
v -54 -18 0
v -55 -18 0
v -55 -17 0
v -54 -17 0
v -55 -18 0
v -56 -18 0
v -56 -17 0
v -55 -17 0
v -56 -18 0
v -57 -18 0
v -57 -17 0
v -56 -17 0
v -57 -18 0
v -58 -18 0
v -58 -17 0
v -57 -17 0
v 0 -19 0
v -1 -19 0
v -1 -18 0
v 0 -18 0
v -1 -19 0
v -2 -19 0
v -2 -18 0
v -1 -18 0
v -2 -19 0
v -3 -19 0
v -3 -18 0
v -2 -18 0
v -3 -19 0
v -4 -19 0
v -4 -18 0
v -3 -18 0
v -4 -19 0
v -5 -19 0
v -5 -18 0
v -4 -18 0
v -5 -19 0
v -6 -19 0
v -6 -18 0
v -5 -18 0
v -6 -19 0
v -7 -19 0
v -7 -18 0
v -6 -18 0
v -7 -19 0
v -8 -19 0
v -8 -18 0
v -7 -18 0
v -12 -19 0
v -13 -19 0
v -13 -18 0
v -12 -18 0
v -13 -19 0
v -14 -19 0
v -14 -18 0
v -13 -18 0
v -14 -19 0
v -15 -19 0
v -15 -18 0
v -14 -18 0
v -15 -19 0
v -16 -19 0
v -16 -18 0
v -15 -18 0
v -19 -19 0
v -20 -19 0
v -20 -18 0
v -19 -18 0
v -20 -19 0
v -21 -19 0
v -21 -18 0
v -20 -18 0
v -26 -19 0
v -27 -19 0
v -27 -18 0
v -26 -18 0
v -27 -19 0
v -28 -19 0
v -28 -18 0
v -27 -18 0
v -28 -19 0
v -29 -19 0
v -29 -18 0
v -28 -18 0
v -29 -19 0
v -30 -19 0
v -30 -18 0
v -29 -18 0
v -30 -19 0
v -31 -19 0
v -31 -18 0
v -30 -18 0
v -31 -19 0
v -32 -19 0
v -32 -18 0
v -31 -18 0
v -37 -19 0
v -38 -19 0
v -38 -18 0
v -37 -18 0
v -38 -19 0
v -39 -19 0
v -39 -18 0
v -38 -18 0
v -42 -19 0
v -43 -19 0
v -43 -18 0
v -42 -18 0
v -43 -19 0
v -44 -19 0
v -44 -18 0
v -43 -18 0
v -44 -19 0
v -45 -19 0
v -45 -18 0
v -44 -18 0
v -45 -19 0
v -46 -19 0
v -46 -18 0
v -45 -18 0
v -50 -19 0
v -51 -19 0
v -51 -18 0
v -50 -18 0
v -51 -19 0
v -52 -19 0
v -52 -18 0
v -51 -18 0
v -52 -19 0
v -53 -19 0
v -53 -18 0
v -52 -18 0
v -53 -19 0
v -54 -19 0
v -54 -18 0
v -53 -18 0
v -54 -19 0
v -55 -19 0
v -55 -18 0
v -54 -18 0
v -55 -19 0
v -56 -19 0
v -56 -18 0
v -55 -18 0
v -56 -19 0
v -57 -19 0
v -57 -18 0
v -56 -18 0
v -57 -19 0
v -58 -19 0
v -58 -18 0
v -57 -18 0
v 0 -20 0
v -1 -20 0
v -1 -19 0
v 0 -19 0
v -1 -20 0
v -2 -20 0
v -2 -19 0
v -1 -19 0
v -2 -20 0
v -3 -20 0
v -3 -19 0
v -2 -19 0
v -3 -20 0
v -4 -20 0
v -4 -19 0
v -3 -19 0
v -4 -20 0
v -5 -20 0
v -5 -19 0
v -4 -19 0
v -5 -20 0
v -6 -20 0
v -6 -19 0
v -5 -19 0
v -12 -20 0
v -13 -20 0
v -13 -19 0
v -12 -19 0
v -13 -20 0
v -14 -20 0
v -14 -19 0
v -13 -19 0
v -14 -20 0
v -15 -20 0
v -15 -19 0
v -14 -19 0
v -15 -20 0
v -16 -20 0
v -16 -19 0
v -15 -19 0
v -19 -20 0
v -20 -20 0
v -20 -19 0
v -19 -19 0
v -20 -20 0
v -21 -20 0
v -21 -19 0
v -20 -19 0
v -26 -20 0
v -27 -20 0
v -27 -19 0
v -26 -19 0
v -27 -20 0
v -28 -20 0
v -28 -19 0
v -27 -19 0
v -28 -20 0
v -29 -20 0
v -29 -19 0
v -28 -19 0
v -29 -20 0
v -30 -20 0
v -30 -19 0
v -29 -19 0
v -30 -20 0
v -31 -20 0
v -31 -19 0
v -30 -19 0
v -31 -20 0
v -32 -20 0
v -32 -19 0
v -31 -19 0
v -37 -20 0
v -38 -20 0
v -38 -19 0
v -37 -19 0
v -38 -20 0
v -39 -20 0
v -39 -19 0
v -38 -19 0
v -42 -20 0
v -43 -20 0
v -43 -19 0
v -42 -19 0
v -43 -20 0
v -44 -20 0
v -44 -19 0
v -43 -19 0
v -44 -20 0
v -45 -20 0
v -45 -19 0
v -44 -19 0
v -45 -20 0
v -46 -20 0
v -46 -19 0
v -45 -19 0
v -52 -20 0
v -53 -20 0
v -53 -19 0
v -52 -19 0
v -53 -20 0
v -54 -20 0
v -54 -19 0
v -53 -19 0
v -54 -20 0
v -55 -20 0
v -55 -19 0
v -54 -19 0
v -55 -20 0
v -56 -20 0
v -56 -19 0
v -55 -19 0
v -56 -20 0
v -57 -20 0
v -57 -19 0
v -56 -19 0
v -57 -20 0
v -58 -20 0
v -58 -19 0
v -57 -19 0
v 0 -21 0
v -1 -21 0
v -1 -20 0
v 0 -20 0
v -1 -21 0
v -2 -21 0
v -2 -20 0
v -1 -20 0
v -2 -21 0
v -3 -21 0
v -3 -20 0
v -2 -20 0
v -3 -21 0
v -4 -21 0
v -4 -20 0
v -3 -20 0
v -4 -21 0
v -5 -21 0
v -5 -20 0
v -4 -20 0
v -5 -21 0
v -6 -21 0
v -6 -20 0
v -5 -20 0
v -19 -21 0
v -20 -21 0
v -20 -20 0
v -19 -20 0
v -20 -21 0
v -21 -21 0
v -21 -20 0
v -20 -20 0
v -28 -21 0
v -29 -21 0
v -29 -20 0
v -28 -20 0
v -29 -21 0
v -30 -21 0
v -30 -20 0
v -29 -20 0
v -37 -21 0
v -38 -21 0
v -38 -20 0
v -37 -20 0
v -38 -21 0
v -39 -21 0
v -39 -20 0
v -38 -20 0
v -52 -21 0
v -53 -21 0
v -53 -20 0
v -52 -20 0
v -53 -21 0
v -54 -21 0
v -54 -20 0
v -53 -20 0
v -54 -21 0
v -55 -21 0
v -55 -20 0
v -54 -20 0
v -55 -21 0
v -56 -21 0
v -56 -20 0
v -55 -20 0
v -56 -21 0
v -57 -21 0
v -57 -20 0
v -56 -20 0
v -57 -21 0
v -58 -21 0
v -58 -20 0
v -57 -20 0
v 0 -22 0
v -1 -22 0
v -1 -21 0
v 0 -21 0
v -1 -22 0
v -2 -22 0
v -2 -21 0
v -1 -21 0
v -2 -22 0
v -3 -22 0
v -3 -21 0
v -2 -21 0
v -3 -22 0
v -4 -22 0
v -4 -21 0
v -3 -21 0
v -4 -22 0
v -5 -22 0
v -5 -21 0
v -4 -21 0
v -5 -22 0
v -6 -22 0
v -6 -21 0
v -5 -21 0
v -10 -22 0
v -11 -22 0
v -11 -21 0
v -10 -21 0
v -11 -22 0
v -12 -22 0
v -12 -21 0
v -11 -21 0
v -19 -22 0
v -20 -22 0
v -20 -21 0
v -19 -21 0
v -20 -22 0
v -21 -22 0
v -21 -21 0
v -20 -21 0
v -28 -22 0
v -29 -22 0
v -29 -21 0
v -28 -21 0
v -29 -22 0
v -30 -22 0
v -30 -21 0
v -29 -21 0
v -37 -22 0
v -38 -22 0
v -38 -21 0
v -37 -21 0
v -38 -22 0
v -39 -22 0
v -39 -21 0
v -38 -21 0
v -46 -22 0
v -47 -22 0
v -47 -21 0
v -46 -21 0
v -47 -22 0
v -48 -22 0
v -48 -21 0
v -47 -21 0
v -52 -22 0
v -53 -22 0
v -53 -21 0
v -52 -21 0
v -53 -22 0
v -54 -22 0
v -54 -21 0
v -53 -21 0
v -54 -22 0
v -55 -22 0
v -55 -21 0
v -54 -21 0
v -55 -22 0
v -56 -22 0
v -56 -21 0
v -55 -21 0
v -56 -22 0
v -57 -22 0
v -57 -21 0
v -56 -21 0
v -57 -22 0
v -58 -22 0
v -58 -21 0
v -57 -21 0
v 0 -23 0
v -1 -23 0
v -1 -22 0
v 0 -22 0
v -1 -23 0
v -2 -23 0
v -2 -22 0
v -1 -22 0
v -2 -23 0
v -3 -23 0
v -3 -22 0
v -2 -22 0
v -3 -23 0
v -4 -23 0
v -4 -22 0
v -3 -22 0
v -4 -23 0
v -5 -23 0
v -5 -22 0
v -4 -22 0
v -5 -23 0
v -6 -23 0
v -6 -22 0
v -5 -22 0
v -52 -23 0
v -53 -23 0
v -53 -22 0
v -52 -22 0
v -53 -23 0
v -54 -23 0
v -54 -22 0
v -53 -22 0
v -54 -23 0
v -55 -23 0
v -55 -22 0
v -54 -22 0
v -55 -23 0
v -56 -23 0
v -56 -22 0
v -55 -22 0
v -56 -23 0
v -57 -23 0
v -57 -22 0
v -56 -22 0
v -57 -23 0
v -58 -23 0
v -58 -22 0
v -57 -22 0
v -7 -25 0
v -8 -25 0
v -8 -24 0
v -7 -24 0
v -8 -25 0
v -9 -25 0
v -9 -24 0
v -8 -24 0
v -49 -25 0
v -50 -25 0
v -50 -24 0
v -49 -24 0
v -50 -25 0
v -51 -25 0
v -51 -24 0
v -50 -24 0
v -20 -26 0
v -21 -26 0
v -21 -25 0
v -20 -25 0
v -21 -26 0
v -22 -26 0
v -22 -25 0
v -21 -25 0
v -22 -26 0
v -23 -26 0
v -23 -25 0
v -22 -25 0
v -23 -26 0
v -24 -26 0
v -24 -25 0
v -23 -25 0
v -24 -26 0
v -25 -26 0
v -25 -25 0
v -24 -25 0
v -25 -26 0
v -26 -26 0
v -26 -25 0
v -25 -25 0
v -26 -26 0
v -27 -26 0
v -27 -25 0
v -26 -25 0
v -27 -26 0
v -28 -26 0
v -28 -25 0
v -27 -25 0
v -28 -26 0
v -29 -26 0
v -29 -25 0
v -28 -25 0
v -29 -26 0
v -30 -26 0
v -30 -25 0
v -29 -25 0
v -30 -26 0
v -31 -26 0
v -31 -25 0
v -30 -25 0
v -31 -26 0
v -32 -26 0
v -32 -25 0
v -31 -25 0
v -32 -26 0
v -33 -26 0
v -33 -25 0
v -32 -25 0
v -33 -26 0
v -34 -26 0
v -34 -25 0
v -33 -25 0
v -34 -26 0
v -35 -26 0
v -35 -25 0
v -34 -25 0
v -35 -26 0
v -36 -26 0
v -36 -25 0
v -35 -25 0
v -36 -26 0
v -37 -26 0
v -37 -25 0
v -36 -25 0
v -37 -26 0
v -38 -26 0
v -38 -25 0
v -37 -25 0
v -20 -27 0
v -21 -27 0
v -21 -26 0
v -20 -26 0
v -21 -27 0
v -22 -27 0
v -22 -26 0
v -21 -26 0
v -22 -27 0
v -23 -27 0
v -23 -26 0
v -22 -26 0
v -23 -27 0
v -24 -27 0
v -24 -26 0
v -23 -26 0
v -24 -27 0
v -25 -27 0
v -25 -26 0
v -24 -26 0
v -25 -27 0
v -26 -27 0
v -26 -26 0
v -25 -26 0
v -26 -27 0
v -27 -27 0
v -27 -26 0
v -26 -26 0
v -27 -27 0
v -28 -27 0
v -28 -26 0
v -27 -26 0
v -28 -27 0
v -29 -27 0
v -29 -26 0
v -28 -26 0
v -29 -27 0
v -30 -27 0
v -30 -26 0
v -29 -26 0
v -30 -27 0
v -31 -27 0
v -31 -26 0
v -30 -26 0
v -31 -27 0
v -32 -27 0
v -32 -26 0
v -31 -26 0
v -32 -27 0
v -33 -27 0
v -33 -26 0
v -32 -26 0
v -33 -27 0
v -34 -27 0
v -34 -26 0
v -33 -26 0
v -34 -27 0
v -35 -27 0
v -35 -26 0
v -34 -26 0
v -35 -27 0
v -36 -27 0
v -36 -26 0
v -35 -26 0
v -36 -27 0
v -37 -27 0
v -37 -26 0
v -36 -26 0
v -37 -27 0
v -38 -27 0
v -38 -26 0
v -37 -26 0
v -11 -28 0
v -12 -28 0
v -12 -27 0
v -11 -27 0
v -12 -28 0
v -13 -28 0
v -13 -27 0
v -12 -27 0
v -21 -28 0
v -22 -28 0
v -22 -27 0
v -21 -27 0
v -22 -28 0
v -23 -28 0
v -23 -27 0
v -22 -27 0
v -23 -28 0
v -24 -28 0
v -24 -27 0
v -23 -27 0
v -24 -28 0
v -25 -28 0
v -25 -27 0
v -24 -27 0
v -25 -28 0
v -26 -28 0
v -26 -27 0
v -25 -27 0
v -26 -28 0
v -27 -28 0
v -27 -27 0
v -26 -27 0
v -27 -28 0
v -28 -28 0
v -28 -27 0
v -27 -27 0
v -28 -28 0
v -29 -28 0
v -29 -27 0
v -28 -27 0
v -29 -28 0
v -30 -28 0
v -30 -27 0
v -29 -27 0
v -30 -28 0
v -31 -28 0
v -31 -27 0
v -30 -27 0
v -31 -28 0
v -32 -28 0
v -32 -27 0
v -31 -27 0
v -32 -28 0
v -33 -28 0
v -33 -27 0
v -32 -27 0
v -33 -28 0
v -34 -28 0
v -34 -27 0
v -33 -27 0
v -34 -28 0
v -35 -28 0
v -35 -27 0
v -34 -27 0
v -35 -28 0
v -36 -28 0
v -36 -27 0
v -35 -27 0
v -36 -28 0
v -37 -28 0
v -37 -27 0
v -36 -27 0
v -45 -28 0
v -46 -28 0
v -46 -27 0
v -45 -27 0
v -46 -28 0
v -47 -28 0
v -47 -27 0
v -46 -27 0
v -11 -29 0
v -12 -29 0
v -12 -28 0
v -11 -28 0
v -12 -29 0
v -13 -29 0
v -13 -28 0
v -12 -28 0
v -15 -29 0
v -16 -29 0
v -16 -28 0
v -15 -28 0
v -16 -29 0
v -17 -29 0
v -17 -28 0
v -16 -28 0
v -17 -29 0
v -18 -29 0
v -18 -28 0
v -17 -28 0
v -18 -29 0
v -19 -29 0
v -19 -28 0
v -18 -28 0
v -21 -29 0
v -22 -29 0
v -22 -28 0
v -21 -28 0
v -22 -29 0
v -23 -29 0
v -23 -28 0
v -22 -28 0
v -23 -29 0
v -24 -29 0
v -24 -28 0
v -23 -28 0
v -24 -29 0
v -25 -29 0
v -25 -28 0
v -24 -28 0
v -25 -29 0
v -26 -29 0
v -26 -28 0
v -25 -28 0
v -26 -29 0
v -27 -29 0
v -27 -28 0
v -26 -28 0
v -27 -29 0
v -28 -29 0
v -28 -28 0
v -27 -28 0
v -28 -29 0
v -29 -29 0
v -29 -28 0
v -28 -28 0
v -29 -29 0
v -30 -29 0
v -30 -28 0
v -29 -28 0
v -30 -29 0
v -31 -29 0
v -31 -28 0
v -30 -28 0
v -31 -29 0
v -32 -29 0
v -32 -28 0
v -31 -28 0
v -32 -29 0
v -33 -29 0
v -33 -28 0
v -32 -28 0
v -33 -29 0
v -34 -29 0
v -34 -28 0
v -33 -28 0
v -34 -29 0
v -35 -29 0
v -35 -28 0
v -34 -28 0
v -35 -29 0
v -36 -29 0
v -36 -28 0
v -35 -28 0
v -36 -29 0
v -37 -29 0
v -37 -28 0
v -36 -28 0
v -39 -29 0
v -40 -29 0
v -40 -28 0
v -39 -28 0
v -40 -29 0
v -41 -29 0
v -41 -28 0
v -40 -28 0
v -41 -29 0
v -42 -29 0
v -42 -28 0
v -41 -28 0
v -42 -29 0
v -43 -29 0
v -43 -28 0
v -42 -28 0
v -45 -29 0
v -46 -29 0
v -46 -28 0
v -45 -28 0
v -46 -29 0
v -47 -29 0
v -47 -28 0
v -46 -28 0
v -15 -30 0
v -16 -30 0
v -16 -29 0
v -15 -29 0
v -16 -30 0
v -17 -30 0
v -17 -29 0
v -16 -29 0
v -17 -30 0
v -18 -30 0
v -18 -29 0
v -17 -29 0
v -18 -30 0
v -19 -30 0
v -19 -29 0
v -18 -29 0
v -39 -30 0
v -40 -30 0
v -40 -29 0
v -39 -29 0
v -40 -30 0
v -41 -30 0
v -41 -29 0
v -40 -29 0
v -41 -30 0
v -42 -30 0
v -42 -29 0
v -41 -29 0
v -42 -30 0
v -43 -30 0
v -43 -29 0
v -42 -29 0
v 0 -31 0
v -1 -31 0
v -1 -30 0
v 0 -30 0
v -1 -31 0
v -2 -31 0
v -2 -30 0
v -1 -30 0
v -2 -31 0
v -3 -31 0
v -3 -30 0
v -2 -30 0
v -3 -31 0
v -4 -31 0
v -4 -30 0
v -3 -30 0
v -4 -31 0
v -5 -31 0
v -5 -30 0
v -4 -30 0
v -5 -31 0
v -6 -31 0
v -6 -30 0
v -5 -30 0
v -8 -31 0
v -9 -31 0
v -9 -30 0
v -8 -30 0
v -9 -31 0
v -10 -31 0
v -10 -30 0
v -9 -30 0
v -48 -31 0
v -49 -31 0
v -49 -30 0
v -48 -30 0
v -49 -31 0
v -50 -31 0
v -50 -30 0
v -49 -30 0
v -52 -31 0
v -53 -31 0
v -53 -30 0
v -52 -30 0
v -53 -31 0
v -54 -31 0
v -54 -30 0
v -53 -30 0
v -54 -31 0
v -55 -31 0
v -55 -30 0
v -54 -30 0
v -55 -31 0
v -56 -31 0
v -56 -30 0
v -55 -30 0
v -56 -31 0
v -57 -31 0
v -57 -30 0
v -56 -30 0
v -57 -31 0
v -58 -31 0
v -58 -30 0
v -57 -30 0
v 0 -32 0
v -1 -32 0
v -1 -31 0
v 0 -31 0
v -1 -32 0
v -2 -32 0
v -2 -31 0
v -1 -31 0
v -2 -32 0
v -3 -32 0
v -3 -31 0
v -2 -31 0
v -3 -32 0
v -4 -32 0
v -4 -31 0
v -3 -31 0
v -4 -32 0
v -5 -32 0
v -5 -31 0
v -4 -31 0
v -5 -32 0
v -6 -32 0
v -6 -31 0
v -5 -31 0
v -8 -32 0
v -9 -32 0
v -9 -31 0
v -8 -31 0
v -9 -32 0
v -10 -32 0
v -10 -31 0
v -9 -31 0
v -48 -32 0
v -49 -32 0
v -49 -31 0
v -48 -31 0
v -49 -32 0
v -50 -32 0
v -50 -31 0
v -49 -31 0
v -52 -32 0
v -53 -32 0
v -53 -31 0
v -52 -31 0
v -53 -32 0
v -54 -32 0
v -54 -31 0
v -53 -31 0
v -54 -32 0
v -55 -32 0
v -55 -31 0
v -54 -31 0
v -55 -32 0
v -56 -32 0
v -56 -31 0
v -55 -31 0
v -56 -32 0
v -57 -32 0
v -57 -31 0
v -56 -31 0
v -57 -32 0
v -58 -32 0
v -58 -31 0
v -57 -31 0

# Texture cooridinates (Count = 79)
vt 0.6875 0.84375
vt 0.71875 0.84375
vt 0.71875 0.875
vt 0.6875 0.875
vt 0.75 0.84375
vt 0.75 0.875
vt 0.6875 0.8125
vt 0.71875 0.8125
vt 0.75 0.8125
vt 0.6875 0.78125
vt 0.71875 0.78125
vt 0.75 0.78125
vt 0.6875 0.75
vt 0.71875 0.75
vt 0.75 0.75
vt 0.5 0.90625
vt 0.53125 0.90625
vt 0.53125 0.9375
vt 0.5 0.9375
vt 0.5625 0.90625
vt 0.5625 0.9375
vt 0.59375 0.90625
vt 0.59375 0.9375
vt 0.625 0.90625
vt 0.625 0.9375
vt 0.65625 0.90625
vt 0.65625 0.9375
vt 0.6875 0.90625
vt 0.6875 0.9375
vt 0.5 0.875
vt 0.53125 0.875
vt 0.5625 0.875
vt 0.59375 0.875
vt 0.625 0.875
vt 0.65625 0.875
vt 0.5 0.84375
vt 0.53125 0.84375
vt 0.5625 0.84375
vt 0.59375 0.84375
vt 0.625 0.84375
vt 0.65625 0.84375
vt 0.5 0.8125
vt 0.53125 0.8125
vt 0.5625 0.8125
vt 0.59375 0.8125
vt 0.625 0.8125
vt 0.65625 0.8125
vt 0.71875 0.90625
vt 0.71875 0.9375
vt 0.75 0.90625
vt 0.75 0.9375
vt 0.5625 0.78125
vt 0.59375 0.78125
vt 0.625 0.78125
vt 0.5625 0.75
vt 0.59375 0.75
vt 0.625 0.75
vt 0.78125 0.84375
vt 0.78125 0.875
vt 0.8125 0.84375
vt 0.8125 0.875
vt 0.5625 0.96875
vt 0.59375 0.96875
vt 0.59375 1
vt 0.5625 1
vt 0.625 0.96875
vt 0.625 1
vt 0.53125 0.78125
vt 0.65625 0.78125
vt 0.53125 0.75
vt 0.65625 0.75
vt 0.78125 0.90625
vt 0.8125 0.90625
vt 0.875 0.875
vt 0.90625 0.875
vt 0.90625 0.90625
vt 0.875 0.90625
vt 0.9375 0.875
vt 0.9375 0.90625

# Normal
vn 0 0 -1

# Mesh description
g LunarStation_mesh_0002

# Faces
f 1/1/1 2/2/1 3/3/1 4/4/1
f 5/2/1 6/5/1 7/6/1 8/3/1
f 9/7/1 10/8/1 11/2/1 12/1/1
f 13/8/1 14/9/1 15/5/1 16/2/1
f 17/1/1 18/2/1 19/3/1 20/4/1
f 21/2/1 22/5/1 23/6/1 24/3/1
f 25/7/1 26/8/1 27/2/1 28/1/1
f 29/8/1 30/9/1 31/5/1 32/2/1
f 33/10/1 34/11/1 35/8/1 36/7/1
f 37/11/1 38/12/1 39/9/1 40/8/1
f 41/7/1 42/8/1 43/2/1 44/1/1
f 45/8/1 46/9/1 47/5/1 48/2/1
f 49/10/1 50/11/1 51/8/1 52/7/1
f 53/11/1 54/12/1 55/9/1 56/8/1
f 57/13/1 58/14/1 59/11/1 60/10/1
f 61/14/1 62/15/1 63/12/1 64/11/1
f 65/10/1 66/11/1 67/8/1 68/7/1
f 69/11/1 70/12/1 71/9/1 72/8/1
f 73/16/1 74/17/1 75/18/1 76/19/1
f 77/17/1 78/20/1 79/21/1 80/18/1
f 81/20/1 82/22/1 83/23/1 84/21/1
f 85/22/1 86/24/1 87/25/1 88/23/1
f 89/24/1 90/26/1 91/27/1 92/25/1
f 93/26/1 94/28/1 95/29/1 96/27/1
f 97/13/1 98/14/1 99/11/1 100/10/1
f 101/14/1 102/15/1 103/12/1 104/11/1
f 105/1/1 106/2/1 107/3/1 108/4/1
f 109/2/1 110/5/1 111/6/1 112/3/1
f 113/13/1 114/14/1 115/11/1 116/10/1
f 117/14/1 118/15/1 119/12/1 120/11/1
f 121/16/1 122/17/1 123/18/1 124/19/1
f 125/17/1 126/20/1 127/21/1 128/18/1
f 129/20/1 130/22/1 131/23/1 132/21/1
f 133/22/1 134/24/1 135/25/1 136/23/1
f 137/24/1 138/26/1 139/27/1 140/25/1
f 141/26/1 142/28/1 143/29/1 144/27/1
f 145/30/1 146/31/1 147/17/1 148/16/1
f 149/31/1 150/32/1 151/20/1 152/17/1
f 153/32/1 154/33/1 155/22/1 156/20/1
f 157/33/1 158/34/1 159/24/1 160/22/1
f 161/34/1 162/35/1 163/26/1 164/24/1
f 165/35/1 166/4/1 167/28/1 168/26/1
f 169/16/1 170/17/1 171/18/1 172/19/1
f 173/17/1 174/20/1 175/21/1 176/18/1
f 177/20/1 178/22/1 179/23/1 180/21/1
f 181/22/1 182/24/1 183/25/1 184/23/1
f 185/20/1 186/22/1 187/23/1 188/21/1
f 189/22/1 190/24/1 191/25/1 192/23/1
f 193/24/1 194/26/1 195/27/1 196/25/1
f 197/26/1 198/28/1 199/29/1 200/27/1
f 201/7/1 202/8/1 203/2/1 204/1/1
f 205/8/1 206/9/1 207/5/1 208/2/1
f 209/16/1 210/17/1 211/18/1 212/19/1
f 213/17/1 214/20/1 215/21/1 216/18/1
f 217/20/1 218/22/1 219/23/1 220/21/1
f 221/22/1 222/24/1 223/25/1 224/23/1
f 225/20/1 226/22/1 227/23/1 228/21/1
f 229/22/1 230/24/1 231/25/1 232/23/1
f 233/24/1 234/26/1 235/27/1 236/25/1
f 237/26/1 238/28/1 239/29/1 240/27/1
f 241/30/1 242/31/1 243/17/1 244/16/1
f 245/31/1 246/32/1 247/20/1 248/17/1
f 249/32/1 250/33/1 251/22/1 252/20/1
f 253/33/1 254/34/1 255/24/1 256/22/1
f 257/34/1 258/35/1 259/26/1 260/24/1
f 261/35/1 262/4/1 263/28/1 264/26/1
f 265/36/1 266/37/1 267/31/1 268/30/1
f 269/37/1 270/38/1 271/32/1 272/31/1
f 273/38/1 274/39/1 275/33/1 276/32/1
f 277/39/1 278/40/1 279/34/1 280/33/1
f 281/40/1 282/41/1 283/35/1 284/34/1
f 285/41/1 286/1/1 287/4/1 288/35/1
f 289/30/1 290/31/1 291/17/1 292/16/1
f 293/31/1 294/32/1 295/20/1 296/17/1
f 297/32/1 298/33/1 299/22/1 300/20/1
f 301/33/1 302/34/1 303/24/1 304/22/1
f 305/32/1 306/33/1 307/22/1 308/20/1
f 309/33/1 310/34/1 311/24/1 312/22/1
f 313/34/1 314/35/1 315/26/1 316/24/1
f 317/35/1 318/4/1 319/28/1 320/26/1
f 321/10/1 322/11/1 323/8/1 324/7/1
f 325/11/1 326/12/1 327/9/1 328/8/1
f 329/30/1 330/31/1 331/17/1 332/16/1
f 333/31/1 334/32/1 335/20/1 336/17/1
f 337/32/1 338/33/1 339/22/1 340/20/1
f 341/33/1 342/34/1 343/24/1 344/22/1
f 345/32/1 346/33/1 347/22/1 348/20/1
f 349/33/1 350/34/1 351/24/1 352/22/1
f 353/34/1 354/35/1 355/26/1 356/24/1
f 357/35/1 358/4/1 359/28/1 360/26/1
f 361/36/1 362/37/1 363/31/1 364/30/1
f 365/37/1 366/38/1 367/32/1 368/31/1
f 369/38/1 370/39/1 371/33/1 372/32/1
f 373/39/1 374/40/1 375/34/1 376/33/1
f 377/40/1 378/41/1 379/35/1 380/34/1
f 381/41/1 382/1/1 383/4/1 384/35/1
f 385/42/1 386/43/1 387/37/1 388/36/1
f 389/43/1 390/44/1 391/38/1 392/37/1
f 393/44/1 394/45/1 395/39/1 396/38/1
f 397/45/1 398/46/1 399/40/1 400/39/1
f 401/46/1 402/47/1 403/41/1 404/40/1
f 405/47/1 406/7/1 407/1/1 408/41/1
f 409/13/1 410/14/1 411/11/1 412/10/1
f 413/14/1 414/15/1 415/12/1 416/11/1
f 417/42/1 418/43/1 419/37/1 420/36/1
f 421/43/1 422/44/1 423/38/1 424/37/1
f 425/44/1 426/45/1 427/39/1 428/38/1
f 429/45/1 430/46/1 431/40/1 432/39/1
f 433/46/1 434/47/1 435/41/1 436/40/1
f 437/47/1 438/7/1 439/1/1 440/41/1
f 441/28/1 442/48/1 443/49/1 444/29/1
f 445/48/1 446/50/1 447/51/1 448/49/1
f 449/16/1 450/17/1 451/18/1 452/19/1
f 453/17/1 454/20/1 455/21/1 456/18/1
f 457/20/1 458/22/1 459/23/1 460/21/1
f 461/22/1 462/24/1 463/25/1 464/23/1
f 465/24/1 466/26/1 467/27/1 468/25/1
f 469/26/1 470/28/1 471/29/1 472/27/1
f 473/28/1 474/48/1 475/49/1 476/29/1
f 477/48/1 478/50/1 479/51/1 480/49/1
f 481/4/1 482/3/1 483/48/1 484/28/1
f 485/3/1 486/6/1 487/50/1 488/48/1
f 489/30/1 490/31/1 491/17/1 492/16/1
f 493/31/1 494/32/1 495/20/1 496/17/1
f 497/32/1 498/33/1 499/22/1 500/20/1
f 501/33/1 502/34/1 503/24/1 504/22/1
f 505/34/1 506/35/1 507/26/1 508/24/1
f 509/35/1 510/4/1 511/28/1 512/26/1
f 513/4/1 514/3/1 515/48/1 516/28/1
f 517/3/1 518/6/1 519/50/1 520/48/1
f 521/52/1 522/53/1 523/45/1 524/44/1
f 525/53/1 526/54/1 527/46/1 528/45/1
f 529/52/1 530/53/1 531/45/1 532/44/1
f 533/53/1 534/54/1 535/46/1 536/45/1
f 537/55/1 538/56/1 539/53/1 540/52/1
f 541/56/1 542/57/1 543/54/1 544/53/1
f 545/55/1 546/56/1 547/53/1 548/52/1
f 549/56/1 550/57/1 551/54/1 552/53/1
f 553/16/1 554/17/1 555/18/1 556/19/1
f 557/17/1 558/20/1 559/21/1 560/18/1
f 561/20/1 562/22/1 563/23/1 564/21/1
f 565/22/1 566/24/1 567/25/1 568/23/1
f 569/20/1 570/22/1 571/23/1 572/21/1
f 573/22/1 574/24/1 575/25/1 576/23/1
f 577/20/1 578/22/1 579/23/1 580/21/1
f 581/22/1 582/24/1 583/25/1 584/23/1
f 585/24/1 586/26/1 587/27/1 588/25/1
f 589/24/1 590/26/1 591/27/1 592/25/1
f 593/26/1 594/28/1 595/29/1 596/27/1
f 597/16/1 598/17/1 599/18/1 600/19/1
f 601/17/1 602/20/1 603/21/1 604/18/1
f 605/20/1 606/22/1 607/23/1 608/21/1
f 609/22/1 610/24/1 611/25/1 612/23/1
f 613/20/1 614/22/1 615/23/1 616/21/1
f 617/22/1 618/24/1 619/25/1 620/23/1
f 621/20/1 622/22/1 623/23/1 624/21/1
f 625/22/1 626/24/1 627/25/1 628/23/1
f 629/24/1 630/26/1 631/27/1 632/25/1
f 633/26/1 634/28/1 635/29/1 636/27/1
f 637/36/1 638/37/1 639/31/1 640/30/1
f 641/37/1 642/38/1 643/32/1 644/31/1
f 645/38/1 646/39/1 647/33/1 648/32/1
f 649/39/1 650/40/1 651/34/1 652/33/1
f 653/38/1 654/39/1 655/33/1 656/32/1
f 657/39/1 658/40/1 659/34/1 660/33/1
f 661/38/1 662/39/1 663/33/1 664/32/1
f 665/39/1 666/40/1 667/34/1 668/33/1
f 669/40/1 670/41/1 671/35/1 672/34/1
f 673/38/1 674/39/1 675/33/1 676/32/1
f 677/41/1 678/1/1 679/4/1 680/35/1
f 681/5/1 682/58/1 683/59/1 684/6/1
f 685/58/1 686/60/1 687/61/1 688/59/1
f 689/5/1 690/58/1 691/59/1 692/6/1
f 693/58/1 694/60/1 695/61/1 696/59/1
f 697/36/1 698/37/1 699/31/1 700/30/1
f 701/37/1 702/38/1 703/32/1 704/31/1
f 705/38/1 706/39/1 707/33/1 708/32/1
f 709/39/1 710/40/1 711/34/1 712/33/1
f 713/38/1 714/39/1 715/33/1 716/32/1
f 717/39/1 718/40/1 719/34/1 720/33/1
f 721/38/1 722/39/1 723/33/1 724/32/1
f 725/39/1 726/40/1 727/34/1 728/33/1
f 729/40/1 730/41/1 731/35/1 732/34/1
f 733/41/1 734/1/1 735/4/1 736/35/1
f 737/5/1 738/58/1 739/59/1 740/6/1
f 741/58/1 742/60/1 743/61/1 744/59/1
f 745/42/1 746/43/1 747/37/1 748/36/1
f 749/43/1 750/44/1 751/38/1 752/37/1
f 753/44/1 754/45/1 755/39/1 756/38/1
f 757/45/1 758/46/1 759/40/1 760/39/1
f 761/44/1 762/45/1 763/39/1 764/38/1
f 765/45/1 766/46/1 767/40/1 768/39/1
f 769/44/1 770/45/1 771/39/1 772/38/1
f 773/45/1 774/46/1 775/40/1 776/39/1
f 777/46/1 778/47/1 779/41/1 780/40/1
f 781/44/1 782/45/1 783/39/1 784/38/1
f 785/47/1 786/7/1 787/1/1 788/41/1
f 789/5/1 790/58/1 791/59/1 792/6/1
f 793/58/1 794/60/1 795/61/1 796/59/1
f 797/5/1 798/58/1 799/59/1 800/6/1
f 801/58/1 802/60/1 803/61/1 804/59/1
f 805/42/1 806/43/1 807/37/1 808/36/1
f 809/43/1 810/44/1 811/38/1 812/37/1
f 813/44/1 814/45/1 815/39/1 816/38/1
f 817/45/1 818/46/1 819/40/1 820/39/1
f 821/44/1 822/45/1 823/39/1 824/38/1
f 825/45/1 826/46/1 827/40/1 828/39/1
f 829/44/1 830/45/1 831/39/1 832/38/1
f 833/45/1 834/46/1 835/40/1 836/39/1
f 837/46/1 838/47/1 839/41/1 840/40/1
f 841/47/1 842/7/1 843/1/1 844/41/1
f 845/5/1 846/58/1 847/59/1 848/6/1
f 849/58/1 850/60/1 851/61/1 852/59/1
f 853/28/1 854/48/1 855/49/1 856/29/1
f 857/48/1 858/50/1 859/51/1 860/49/1
f 861/16/1 862/17/1 863/18/1 864/19/1
f 865/17/1 866/20/1 867/21/1 868/18/1
f 869/20/1 870/22/1 871/23/1 872/21/1
f 873/22/1 874/24/1 875/25/1 876/23/1
f 877/24/1 878/26/1 879/27/1 880/25/1
f 881/26/1 882/28/1 883/29/1 884/27/1
f 885/28/1 886/48/1 887/49/1 888/29/1
f 889/48/1 890/50/1 891/51/1 892/49/1
f 893/16/1 894/17/1 895/18/1 896/19/1
f 897/17/1 898/20/1 899/21/1 900/18/1
f 901/20/1 902/22/1 903/23/1 904/21/1
f 905/22/1 906/24/1 907/25/1 908/23/1
f 909/24/1 910/26/1 911/27/1 912/25/1
f 913/26/1 914/28/1 915/29/1 916/27/1
f 917/4/1 918/3/1 919/48/1 920/28/1
f 921/3/1 922/6/1 923/50/1 924/48/1
f 925/30/1 926/31/1 927/17/1 928/16/1
f 929/31/1 930/32/1 931/20/1 932/17/1
f 933/32/1 934/33/1 935/22/1 936/20/1
f 937/33/1 938/34/1 939/24/1 940/22/1
f 941/34/1 942/35/1 943/26/1 944/24/1
f 945/35/1 946/4/1 947/28/1 948/26/1
f 949/4/1 950/3/1 951/48/1 952/28/1
f 953/3/1 954/6/1 955/50/1 956/48/1
f 957/16/1 958/17/1 959/18/1 960/19/1
f 961/17/1 962/20/1 963/21/1 964/18/1
f 965/20/1 966/22/1 967/23/1 968/21/1
f 969/22/1 970/24/1 971/25/1 972/23/1
f 973/24/1 974/26/1 975/27/1 976/25/1
f 977/26/1 978/28/1 979/29/1 980/27/1
f 981/30/1 982/31/1 983/17/1 984/16/1
f 985/31/1 986/32/1 987/20/1 988/17/1
f 989/32/1 990/33/1 991/22/1 992/20/1
f 993/33/1 994/34/1 995/24/1 996/22/1
f 997/34/1 998/35/1 999/26/1 1000/24/1
f 1001/35/1 1002/4/1 1003/28/1 1004/26/1
f 1005/5/1 1006/58/1 1007/59/1 1008/6/1
f 1009/58/1 1010/60/1 1011/61/1 1012/59/1
f 1013/62/1 1014/63/1 1015/64/1 1016/65/1
f 1017/63/1 1018/66/1 1019/67/1 1020/64/1
f 1021/62/1 1022/63/1 1023/64/1 1024/65/1
f 1025/63/1 1026/66/1 1027/67/1 1028/64/1
f 1029/1/1 1030/2/1 1031/3/1 1032/4/1
f 1033/2/1 1034/5/1 1035/6/1 1036/3/1
f 1037/10/1 1038/11/1 1039/8/1 1040/7/1
f 1041/11/1 1042/12/1 1043/9/1 1044/8/1
f 1045/10/1 1046/11/1 1047/8/1 1048/7/1
f 1049/11/1 1050/12/1 1051/9/1 1052/8/1
f 1053/10/1 1054/11/1 1055/8/1 1056/7/1
f 1057/11/1 1058/12/1 1059/9/1 1060/8/1
f 1061/1/1 1062/2/1 1063/3/1 1064/4/1
f 1065/2/1 1066/5/1 1067/6/1 1068/3/1
f 1069/62/1 1070/63/1 1071/64/1 1072/65/1
f 1073/63/1 1074/66/1 1075/67/1 1076/64/1
f 1077/62/1 1078/63/1 1079/64/1 1080/65/1
f 1081/63/1 1082/66/1 1083/67/1 1084/64/1
f 1085/5/1 1086/58/1 1087/59/1 1088/6/1
f 1089/58/1 1090/60/1 1091/61/1 1092/59/1
f 1093/30/1 1094/31/1 1095/17/1 1096/16/1
f 1097/31/1 1098/32/1 1099/20/1 1100/17/1
f 1101/32/1 1102/33/1 1103/22/1 1104/20/1
f 1105/33/1 1106/34/1 1107/24/1 1108/22/1
f 1109/34/1 1110/35/1 1111/26/1 1112/24/1
f 1113/35/1 1114/4/1 1115/28/1 1116/26/1
f 1117/36/1 1118/37/1 1119/31/1 1120/30/1
f 1121/37/1 1122/38/1 1123/32/1 1124/31/1
f 1125/38/1 1126/39/1 1127/33/1 1128/32/1
f 1129/39/1 1130/40/1 1131/34/1 1132/33/1
f 1133/40/1 1134/41/1 1135/35/1 1136/34/1
f 1137/41/1 1138/1/1 1139/4/1 1140/35/1
f 1141/21/1 1142/23/1 1143/63/1 1144/62/1
f 1145/23/1 1146/25/1 1147/66/1 1148/63/1
f 1149/21/1 1150/23/1 1151/63/1 1152/62/1
f 1153/23/1 1154/25/1 1155/66/1 1156/63/1
f 1157/7/1 1158/8/1 1159/2/1 1160/1/1
f 1161/8/1 1162/9/1 1163/5/1 1164/2/1
f 1165/13/1 1166/14/1 1167/11/1 1168/10/1
f 1169/14/1 1170/15/1 1171/12/1 1172/11/1
f 1173/13/1 1174/14/1 1175/11/1 1176/10/1
f 1177/14/1 1178/15/1 1179/12/1 1180/11/1
f 1181/13/1 1182/14/1 1183/11/1 1184/10/1
f 1185/14/1 1186/15/1 1187/12/1 1188/11/1
f 1189/7/1 1190/8/1 1191/2/1 1192/1/1
f 1193/8/1 1194/9/1 1195/5/1 1196/2/1
f 1197/21/1 1198/23/1 1199/63/1 1200/62/1
f 1201/23/1 1202/25/1 1203/66/1 1204/63/1
f 1205/21/1 1206/23/1 1207/63/1 1208/62/1
f 1209/23/1 1210/25/1 1211/66/1 1212/63/1
f 1213/36/1 1214/37/1 1215/31/1 1216/30/1
f 1217/37/1 1218/38/1 1219/32/1 1220/31/1
f 1221/38/1 1222/39/1 1223/33/1 1224/32/1
f 1225/39/1 1226/40/1 1227/34/1 1228/33/1
f 1229/40/1 1230/41/1 1231/35/1 1232/34/1
f 1233/41/1 1234/1/1 1235/4/1 1236/35/1
f 1237/42/1 1238/43/1 1239/37/1 1240/36/1
f 1241/43/1 1242/44/1 1243/38/1 1244/37/1
f 1245/44/1 1246/45/1 1247/39/1 1248/38/1
f 1249/45/1 1250/46/1 1251/40/1 1252/39/1
f 1253/46/1 1254/47/1 1255/41/1 1256/40/1
f 1257/47/1 1258/7/1 1259/1/1 1260/41/1
f 1261/10/1 1262/11/1 1263/8/1 1264/7/1
f 1265/11/1 1266/12/1 1267/9/1 1268/8/1
f 1269/10/1 1270/11/1 1271/8/1 1272/7/1
f 1273/11/1 1274/12/1 1275/9/1 1276/8/1
f 1277/10/1 1278/11/1 1279/8/1 1280/7/1
f 1281/11/1 1282/12/1 1283/9/1 1284/8/1
f 1285/42/1 1286/43/1 1287/37/1 1288/36/1
f 1289/43/1 1290/44/1 1291/38/1 1292/37/1
f 1293/44/1 1294/45/1 1295/39/1 1296/38/1
f 1297/45/1 1298/46/1 1299/40/1 1300/39/1
f 1301/46/1 1302/47/1 1303/41/1 1304/40/1
f 1305/47/1 1306/7/1 1307/1/1 1308/41/1
f 1309/10/1 1310/11/1 1311/8/1 1312/7/1
f 1313/68/1 1314/52/1 1315/44/1 1316/43/1
f 1317/52/1 1318/53/1 1319/45/1 1320/44/1
f 1321/53/1 1322/54/1 1323/46/1 1324/45/1
f 1325/54/1 1326/69/1 1327/47/1 1328/46/1
f 1329/11/1 1330/12/1 1331/9/1 1332/8/1
f 1333/5/1 1334/58/1 1335/59/1 1336/6/1
f 1337/58/1 1338/60/1 1339/61/1 1340/59/1
f 1341/13/1 1342/14/1 1343/11/1 1344/10/1
f 1345/14/1 1346/15/1 1347/12/1 1348/11/1
f 1349/13/1 1350/14/1 1351/11/1 1352/10/1
f 1353/14/1 1354/15/1 1355/12/1 1356/11/1
f 1357/13/1 1358/14/1 1359/11/1 1360/10/1
f 1361/14/1 1362/15/1 1363/12/1 1364/11/1
f 1365/5/1 1366/58/1 1367/59/1 1368/6/1
f 1369/58/1 1370/60/1 1371/61/1 1372/59/1
f 1373/10/1 1374/11/1 1375/8/1 1376/7/1
f 1377/68/1 1378/52/1 1379/44/1 1380/43/1
f 1381/52/1 1382/53/1 1383/45/1 1384/44/1
f 1385/53/1 1386/54/1 1387/46/1 1388/45/1
f 1389/54/1 1390/69/1 1391/47/1 1392/46/1
f 1393/11/1 1394/12/1 1395/9/1 1396/8/1
f 1397/13/1 1398/14/1 1399/11/1 1400/10/1
f 1401/70/1 1402/55/1 1403/52/1 1404/68/1
f 1405/55/1 1406/56/1 1407/53/1 1408/52/1
f 1409/56/1 1410/57/1 1411/54/1 1412/53/1
f 1413/57/1 1414/71/1 1415/69/1 1416/54/1
f 1417/14/1 1418/15/1 1419/12/1 1420/11/1
f 1421/13/1 1422/14/1 1423/11/1 1424/10/1
f 1425/70/1 1426/55/1 1427/52/1 1428/68/1
f 1429/55/1 1430/56/1 1431/53/1 1432/52/1
f 1433/56/1 1434/57/1 1435/54/1 1436/53/1
f 1437/57/1 1438/71/1 1439/69/1 1440/54/1
f 1441/14/1 1442/15/1 1443/12/1 1444/11/1
f 1445/5/1 1446/58/1 1447/59/1 1448/6/1
f 1449/58/1 1450/60/1 1451/61/1 1452/59/1
f 1453/5/1 1454/58/1 1455/59/1 1456/6/1
f 1457/58/1 1458/60/1 1459/61/1 1460/59/1
f 1461/16/1 1462/17/1 1463/18/1 1464/19/1
f 1465/22/1 1466/24/1 1467/25/1 1468/23/1
f 1469/20/1 1470/22/1 1471/23/1 1472/21/1
f 1473/22/1 1474/24/1 1475/25/1 1476/23/1
f 1477/20/1 1478/22/1 1479/23/1 1480/21/1
f 1481/22/1 1482/24/1 1483/25/1 1484/23/1
f 1485/20/1 1486/22/1 1487/23/1 1488/21/1
f 1489/22/1 1490/24/1 1491/25/1 1492/23/1
f 1493/20/1 1494/22/1 1495/23/1 1496/21/1
f 1497/22/1 1498/24/1 1499/25/1 1500/23/1
f 1501/20/1 1502/22/1 1503/23/1 1504/21/1
f 1505/22/1 1506/24/1 1507/25/1 1508/23/1
f 1509/20/1 1510/22/1 1511/23/1 1512/21/1
f 1513/22/1 1514/24/1 1515/25/1 1516/23/1
f 1517/20/1 1518/22/1 1519/23/1 1520/21/1
f 1521/22/1 1522/24/1 1523/25/1 1524/23/1
f 1525/20/1 1526/22/1 1527/23/1 1528/21/1
f 1529/26/1 1530/28/1 1531/29/1 1532/27/1
f 1533/30/1 1534/31/1 1535/17/1 1536/16/1
f 1537/33/1 1538/34/1 1539/24/1 1540/22/1
f 1541/32/1 1542/33/1 1543/22/1 1544/20/1
f 1545/33/1 1546/34/1 1547/24/1 1548/22/1
f 1549/32/1 1550/33/1 1551/22/1 1552/20/1
f 1553/33/1 1554/34/1 1555/24/1 1556/22/1
f 1557/32/1 1558/33/1 1559/22/1 1560/20/1
f 1561/33/1 1562/34/1 1563/24/1 1564/22/1
f 1565/32/1 1566/33/1 1567/22/1 1568/20/1
f 1569/33/1 1570/34/1 1571/24/1 1572/22/1
f 1573/32/1 1574/33/1 1575/22/1 1576/20/1
f 1577/33/1 1578/34/1 1579/24/1 1580/22/1
f 1581/32/1 1582/33/1 1583/22/1 1584/20/1
f 1585/33/1 1586/34/1 1587/24/1 1588/22/1
f 1589/32/1 1590/33/1 1591/22/1 1592/20/1
f 1593/33/1 1594/34/1 1595/24/1 1596/22/1
f 1597/32/1 1598/33/1 1599/22/1 1600/20/1
f 1601/35/1 1602/4/1 1603/28/1 1604/26/1
f 1605/62/1 1606/63/1 1607/64/1 1608/65/1
f 1609/63/1 1610/66/1 1611/67/1 1612/64/1
f 1613/38/1 1614/39/1 1615/33/1 1616/32/1
f 1617/39/1 1618/40/1 1619/34/1 1620/33/1
f 1621/38/1 1622/39/1 1623/33/1 1624/32/1
f 1625/39/1 1626/40/1 1627/34/1 1628/33/1
f 1629/38/1 1630/39/1 1631/33/1 1632/32/1
f 1633/39/1 1634/40/1 1635/34/1 1636/33/1
f 1637/38/1 1638/39/1 1639/33/1 1640/32/1
f 1641/39/1 1642/40/1 1643/34/1 1644/33/1
f 1645/38/1 1646/39/1 1647/33/1 1648/32/1
f 1649/39/1 1650/40/1 1651/34/1 1652/33/1
f 1653/38/1 1654/39/1 1655/33/1 1656/32/1
f 1657/39/1 1658/40/1 1659/34/1 1660/33/1
f 1661/38/1 1662/39/1 1663/33/1 1664/32/1
f 1665/39/1 1666/40/1 1667/34/1 1668/33/1
f 1669/38/1 1670/39/1 1671/33/1 1672/32/1
f 1673/39/1 1674/40/1 1675/34/1 1676/33/1
f 1677/62/1 1678/63/1 1679/64/1 1680/65/1
f 1681/63/1 1682/66/1 1683/67/1 1684/64/1
f 1685/21/1 1686/23/1 1687/63/1 1688/62/1
f 1689/23/1 1690/25/1 1691/66/1 1692/63/1
f 1693/16/1 1694/17/1 1695/18/1 1696/19/1
f 1697/20/1 1698/22/1 1699/23/1 1700/21/1
f 1701/22/1 1702/24/1 1703/25/1 1704/23/1
f 1705/26/1 1706/28/1 1707/29/1 1708/27/1
f 1709/44/1 1710/45/1 1711/39/1 1712/38/1
f 1713/45/1 1714/46/1 1715/40/1 1716/39/1
f 1717/44/1 1718/45/1 1719/39/1 1720/38/1
f 1721/45/1 1722/46/1 1723/40/1 1724/39/1
f 1725/44/1 1726/45/1 1727/39/1 1728/38/1
f 1729/45/1 1730/46/1 1731/40/1 1732/39/1
f 1733/44/1 1734/45/1 1735/39/1 1736/38/1
f 1737/45/1 1738/46/1 1739/40/1 1740/39/1
f 1741/44/1 1742/45/1 1743/39/1 1744/38/1
f 1745/45/1 1746/46/1 1747/40/1 1748/39/1
f 1749/44/1 1750/45/1 1751/39/1 1752/38/1
f 1753/45/1 1754/46/1 1755/40/1 1756/39/1
f 1757/44/1 1758/45/1 1759/39/1 1760/38/1
f 1761/45/1 1762/46/1 1763/40/1 1764/39/1
f 1765/44/1 1766/45/1 1767/39/1 1768/38/1
f 1769/45/1 1770/46/1 1771/40/1 1772/39/1
f 1773/16/1 1774/17/1 1775/18/1 1776/19/1
f 1777/20/1 1778/22/1 1779/23/1 1780/21/1
f 1781/22/1 1782/24/1 1783/25/1 1784/23/1
f 1785/26/1 1786/28/1 1787/29/1 1788/27/1
f 1789/21/1 1790/23/1 1791/63/1 1792/62/1
f 1793/23/1 1794/25/1 1795/66/1 1796/63/1
f 1797/6/1 1798/59/1 1799/72/1 1800/50/1
f 1801/59/1 1802/61/1 1803/73/1 1804/72/1
f 1805/74/1 1806/75/1 1807/76/1 1808/77/1
f 1809/75/1 1810/78/1 1811/79/1 1812/76/1
f 1813/6/1 1814/59/1 1815/72/1 1816/50/1
f 1817/59/1 1818/61/1 1819/73/1 1820/72/1
f 1821/74/1 1822/75/1 1823/76/1 1824/77/1
f 1825/75/1 1826/78/1 1827/79/1 1828/76/1
f 1829/16/1 1830/17/1 1831/18/1 1832/19/1
f 1833/17/1 1834/20/1 1835/21/1 1836/18/1
f 1837/20/1 1838/22/1 1839/23/1 1840/21/1
f 1841/22/1 1842/24/1 1843/25/1 1844/23/1
f 1845/24/1 1846/26/1 1847/27/1 1848/25/1
f 1849/26/1 1850/28/1 1851/29/1 1852/27/1
f 1853/20/1 1854/22/1 1855/23/1 1856/21/1
f 1857/22/1 1858/24/1 1859/25/1 1860/23/1
f 1861/20/1 1862/22/1 1863/23/1 1864/21/1
f 1865/22/1 1866/24/1 1867/25/1 1868/23/1
f 1869/16/1 1870/17/1 1871/18/1 1872/19/1
f 1873/17/1 1874/20/1 1875/21/1 1876/18/1
f 1877/20/1 1878/22/1 1879/23/1 1880/21/1
f 1881/22/1 1882/24/1 1883/25/1 1884/23/1
f 1885/24/1 1886/26/1 1887/27/1 1888/25/1
f 1889/26/1 1890/28/1 1891/29/1 1892/27/1
f 1893/30/1 1894/31/1 1895/17/1 1896/16/1
f 1897/31/1 1898/32/1 1899/20/1 1900/17/1
f 1901/32/1 1902/33/1 1903/22/1 1904/20/1
f 1905/33/1 1906/34/1 1907/24/1 1908/22/1
f 1909/34/1 1910/35/1 1911/26/1 1912/24/1
f 1913/35/1 1914/4/1 1915/28/1 1916/26/1
f 1917/32/1 1918/33/1 1919/22/1 1920/20/1
f 1921/33/1 1922/34/1 1923/24/1 1924/22/1
f 1925/32/1 1926/33/1 1927/22/1 1928/20/1
f 1929/33/1 1930/34/1 1931/24/1 1932/22/1
f 1933/30/1 1934/31/1 1935/17/1 1936/16/1
f 1937/31/1 1938/32/1 1939/20/1 1940/17/1
f 1941/32/1 1942/33/1 1943/22/1 1944/20/1
f 1945/33/1 1946/34/1 1947/24/1 1948/22/1
f 1949/34/1 1950/35/1 1951/26/1 1952/24/1
f 1953/35/1 1954/4/1 1955/28/1 1956/26/1

